95616 366415 443
196555 208997 373
867237 907044 445
892497 7481 525
68652 466303 449
204596 439385 449
983473 850798 507
818500 813698 357
710416 393922 509
284392 429125 449
754119 389096 509
589553 283266 470
373851 4025 443
962348 737113 525
18161 849428 525
884319 102920 525
862186 406532 525
811684 810501 406
320629 704732 509
190538 824594 509
676785 834059 504
970372 985766 458
805309 629906 504
768329 816173 468
50762 513967 470
830755 645204 504
764039 163908 509
471740 448581 444
82618 256314 443
306410 510889 449
38387 682315 509
765684 360006 509
829334 379979 509
40885 431751 449
183244 333618 443
888533 621381 525
895967 311285 525
329385 382912 441
999050 83034 525
156341 418406 449
755836 792903 468
292245 892310 525
670574 554150 509
993454 862238 507
23969 615606 470
605247 221465 470
444870 234812 449
498970 947689 525
593496 384786 470
324603 282513 389
675433 155882 509
339248 482875 449
825718 44060 509
662129 791325 504
608373 914044 525
923352 271916 525
631859 897625 525
680446 101055 509
994561 272508 525
958164 907749 507
463004 367734 449
179744 949680 525
59471 321281 443
368410 646135 509
664454 798465 504
416501 80896 449
407611 521673 470
110685 520960 470
514237 431449 470
398583 659997 509
220507 270864 443
497354 176805 449
384565 334983 441
698030 280004 509
499326 31535 449
672311 374176 509
284397 681340 509
6337 229651 386
345222 753680 509
917893 880246 476
380124 342373 441
986322 730190 525
499799 98221 449
976995 319595 525
258156 342663 407
312611 517048 470
285409 676237 509
992879 393192 525
396903 922543 525
107507 26604 354
961956 476277 525
252676 175808 443
538331 313915 470
235787 966376 525
26270 154589 375
108237 278575 443
228811 675613 509
653431 852055 525
416066 678716 509
867189 145173 525
277431 923676 525
870235 132704 525
937467 263603 525
279633 568864 470
733495 716473 411
691817 45434 509
702283 604844 509
961088 144463 525
900224 204684 525
315932 662254 509
938258 805415 525
18822 579716 470
593355 706073 509
525041 13991 470
352874 729801 509
866771 495993 525
194484 895613 525
435008 217830 449
910331 364117 525
287307 470825 449
925349 345170 525
324933 140348 443
851475 152558 525
586201 771584 509
148888 52857 375
155034 65512 375
3614 303855 443
424290 509058 444
575190 665268 509
816180 142447 509
413534 81710 449
473859 163440 449
880872 640055 525
230294 751509 509
342431 449657 449
493299 878189 525
784313 436342 509
942173 32349 525
261241 909744 525
751850 338361 509
240224 80582 443
289455 408916 441
791477 130338 509
70891 913254 525
521211 912871 525
754887 41469 509
143895 718965 509
856423 175308 525
787509 988799 525
65280 524552 470
599657 903564 525
454480 507255 444
83691 427769 449
347574 612652 470
128868 938607 525
720217 718507 349
330233 803495 509
782467 60480 509
961577 256625 525
299770 153063 443
771985 798344 468
119592 742715 509
499387 509063 426
349887 390327 436
344786 46287 443
31012 375002 443
375208 590507 470
121849 280672 443
546093 251618 470
545139 83720 470
448171 616623 470
738465 515792 509
571894 225427 470
483140 973505 525
86147 551318 470
682501 562624 509
315302 92514 443
632269 669682 442
625718 99477 470
725581 1506 509
207402 195555 373
743325 714660 424
83859 154302 375
262950 795979 509
827845 134685 509
437731 276610 449
956424 717874 525
186561 870482 525
507785 464286 426
449851 970475 525
716974 398443 509
614663 798001 509
143350 692193 509
522971 254206 470
66316 871455 525
275199 704778 509
898967 301151 525
584436 607476 403
685939 801441 504
917211 34881 525
8091 90337 351
683604 349775 509
341827 175333 443
275748 464582 449
258821 424070 449
7485 413352 449
84324 172456 383
219632 824214 509
288372 384556 441
802932 150640 509
627413 386099 509
4938 418016 449
3514 43099 324
941490 863233 507
597056 179860 470
197435 803494 509
222472 152337 386
305640 141205 443
935919 159167 525
259391 74982 443
291893 702640 509
626311 503198 470
276673 127423 443
272910 551153 470
616496 792400 509
431842 351158 449
981964 494838 525
947980 117244 525
156710 383402 443
306586 737748 509
919404 239972 525
282208 289203 389
193691 37543 383
441451 105753 449
746764 262546 509
805349 2073 509
123891 633511 509
234594 986545 525
11956 941447 525
312461 464112 449
375293 885659 525
632522 334062 509
910061 313915 525
436961 637882 509
444252 368689 449
715652 179853 509
374559 99819 443
270387 474774 449
856519 946919 507
948145 598321 525
