389997 40060 443
642102 45385 509
419861 853794 525
734038 814683 468
20693 777459 509
426100 993352 525
788286 167170 509
286172 998040 525
396626 823000 509
762114 690085 504
321207 445820 449
748089 667438 504
647353 797575 504
203996 506972 449
724607 246678 509
533875 391213 470
55636 761416 509
86224 571572 470
204976 863650 525
211037 950432 525
905137 658409 525
206712 157733 370
268276 259774 407
106770 57110 354
718856 389166 509
869822 784147 525
533817 523042 408
541964 144191 470
902080 133912 525
116403 92285 354
401972 582880 470
556930 965023 525
78662 213630 383
512982 746186 509
213925 120137 383
681891 439165 509
346080 320363 441
143444 958375 525
311410 594848 470
11696 680757 509
865552 147083 525
599528 626574 509
480639 698573 509
183814 889056 525
952251 935451 507
448316 916842 525
134606 127903 344
6123 875984 525
738135 616619 509
882587 622168 525
501604 141033 449
401254 156957 443
84580 444431 449
442651 425380 400
441344 333036 449
52274 592574 470
901616 606725 525
413634 616201 470
955609 39936 525
857403 897354 445
515275 745511 509
740969 719259 424
436883 911108 525
241908 511274 449
997524 78874 525
512704 957998 525
377160 766765 509
458665 653721 509
348653 657406 509
917825 442409 525
286812 340967 389
285001 260150 407
907172 490451 525
560547 544337 452
565942 821762 509
34382 446022 449
479929 109640 449
3983 763714 509
176857 545749 470
34859 195379 383
796953 712525 468
230304 250213 443
145253 407175 443
754445 201221 509
550206 963152 525
76349 519532 470
223579 989042 525
108985 214262 383
93387 270811 443
480516 729859 509
201469 108991 383
30841 204116 383
231931 90076 443
455808 487011 444
591326 665146 509
523763 46801 470
152035 989669 525
185162 564831 470
434534 795990 509
229651 702846 509
66239 663089 509
103289 327560 443
854909 913410 476
676148 509173 509
449990 223745 449
895532 150931 525
412209 306449 449
977297 562824 525
575325 547102 421
645018 493023 509
663160 769018 504
440411 789473 509
757703 820389 468
319941 212276 443
379484 766925 509
301959 509982 449
792494 763594 468
360108 205541 443
288599 46465 443
661281 907472 525
430621 531324 470
450010 992361 525
735932 12264 509
802797 218618 509
662465 788076 504
592400 138639 470
621655 402574 470
706103 663559 504
593295 597498 372
708622 308908 509
695589 804264 504
481638 325774 449
759249 870787 525
401168 977085 525
783058 620331 509
121733 191220 383
416925 227290 449
947149 679242 525
547783 110439 470
668181 791290 504
489672 636032 509
106865 575200 470
41273 103659 351
975395 883037 507
176768 179250 347
585213 3529 470
245680 139613 443
359878 267969 441
638346 709491 504
192855 108528 383
423074 505998 444
957932 502338 525
281973 132672 443
20706 710043 509
284941 822259 509
785306 810250 468
874804 938500 476
932572 428159 525
706490 30475 509
175885 274619 443
454339 247956 449
330894 89348 443
618743 563864 447
927523 372406 525
183970 733522 509
877587 905331 445
663250 981897 525
756631 697252 504
682006 298522 509
893504 33026 525
274941 421111 449
160044 243425 443
918604 658124 525
785649 814632 468
583613 118544 470
638379 700429 442
789961 964488 525
79099 339183 443
158996 746885 509
925246 142641 525
816025 78205 509
267636 435627 449
966720 294282 525
505132 131837 449
855634 519896 525
206702 722878 509
559352 901747 525
739510 78360 509
901131 336699 525
942031 640786 525
850245 173306 525
216905 109369 386
207992 906833 525
309773 23483 443
321580 909190 525
757802 845513 525
904508 509795 525
838821 790499 525
711768 859972 525
340210 500827 449
946277 413348 525
918239 12206 525
316127 901739 525
22295 347737 443
170571 298873 443
752305 265290 509
177055 609596 470
527242 71344 470
764517 37040 509
385723 342281 441
112053 444221 449
798111 956493 525
47898 953858 525
331941 403987 441
166406 186392 365
763112 240 509
322621 219326 443
600705 225081 470
869945 799189 525
735924 858474 525
22492 230327 386
235300 337922 407
356831 344278 441
20599 402853 443
113012 619378 470
276013 481695 449
96085 866457 525
672398 518785 509
912165 800222 525
804135 491958 509
592460 825051 509
234817 344353 407
304365 275371 389
273271 249511 407
213868 415413 449
702297 933250 525
932170 2014 525
504910 811266 509
542627 883491 525
954332 186963 525
647908 223834 509
447664 502745 444
924604 335159 525
259307 362698 441
166882 149582 383
633819 127475 509
703039 951450 525
43328 474666 449
641369 210432 509
485831 93501 449
267851 192277 443
839769 238703 525
785947 390566 509
345642 411826 449
270852 48838 443
445959 746884 509
183474 804790 509
772318 240155 509
6931 837135 509
932529 582641 525
176541 807611 509
45248 188069 383
488755 977797 525
726302 329408 509
822194 337696 509
966289 996223 458
454531 424037 400
822408 243775 509
133588 6260 354
151748 811925 509
301958 923604 525
411885 650241 509
606060 153931 470
25267 696767 509
38566 530782 470
764494 605793 509
697878 664312 442
388643 649911 509
383931 602359 470
500631 324060 449
448466 588378 470
272783 963968 525
155298 468826 449
225782 511637 449
870126 445983 525
314164 998740 525
233817 620979 470
891300 375437 525
97262 149528 375
293273 68198 443
375215 686099 509
949573 48795 525
397462 103092 443
475611 910270 525
695725 50966 509
429508 243020 449
637068 204935 509
695372 306400 509
476105 926062 525
75531 787930 509
